{
  "kind": "collectionType",
  "collectionName": "partenaires",
  "info": {
    "singularName": "partenaire",
    "pluralName": "partenaires",
    "displayName": "Partenaire",
    "description": ""
  },
  "options": {
    "draftAndPublish": true
  },
  "pluginOptions": {},
  "attributes": {
    "nomSociete": {
      "type": "string"
    },
    "email": {
      "type": "string"
    },
    "telephone": {
      "type": "string"
    },
    "numSiret": {
      "type": "string"
    },
    "adresse": {
      "type": "text"
    },
    "codePostal": {
      "type": "string"
    },
    "ville": {
      "type": "string"
    },
    "photo": {
      "type": "media",
      "multiple": false,
      "required": false,
      "allowedTypes": [
        "images",
        "files",
        "videos",
        "audios"
      ]
    },
    "user": {
      "type": "relation",
      "relation": "oneToOne",
      "target": "plugin::users-permissions.user"
    },
    "lockers": {
      "type": "relation",
      "relation": "oneToMany",
      "target": "api::locker.locker",
      "mappedBy": "partenaire"
    }
  }
}
